^C:\USERS\MARCIN\DOCUMENTS\VISUAL STUDIO 2015\PROJECTS\SNAKETHEGAME\SNAKETHEGAME\CIRCLE.CPP|C:\USERS\MARCIN\DOCUMENTS\VISUAL STUDIO 2015\PROJECTS\SNAKETHEGAME\SNAKETHEGAME\GAMEWINDOW.CPP|C:\USERS\MARCIN\DOCUMENTS\VISUAL STUDIO 2015\PROJECTS\SNAKETHEGAME\SNAKETHEGAME\INPUT.CPP|C:\USERS\MARCIN\DOCUMENTS\VISUAL STUDIO 2015\PROJECTS\SNAKETHEGAME\SNAKETHEGAME\MAIN.CPP|C:\USERS\MARCIN\DOCUMENTS\VISUAL STUDIO 2015\PROJECTS\SNAKETHEGAME\SNAKETHEGAME\SNAKE.CPP|C:\USERS\MARCIN\DOCUMENTS\VISUAL STUDIO 2015\PROJECTS\SNAKETHEGAME\SNAKETHEGAME\SQUARE.CPP
C:\USERS\MARCIN\DOCUMENTS\VISUAL STUDIO 2015\PROJECTS\SNAKETHEGAME\SNAKETHEGAME\DEBUG\VC140.PDB
C:\USERS\MARCIN\DOCUMENTS\VISUAL STUDIO 2015\PROJECTS\SNAKETHEGAME\SNAKETHEGAME\DEBUG\VC140.IDB
C:\USERS\MARCIN\DOCUMENTS\VISUAL STUDIO 2015\PROJECTS\SNAKETHEGAME\SNAKETHEGAME\DEBUG\CIRCLE.OBJ
C:\USERS\MARCIN\DOCUMENTS\VISUAL STUDIO 2015\PROJECTS\SNAKETHEGAME\SNAKETHEGAME\DEBUG\GAMEWINDOW.OBJ
C:\USERS\MARCIN\DOCUMENTS\VISUAL STUDIO 2015\PROJECTS\SNAKETHEGAME\SNAKETHEGAME\DEBUG\INPUT.OBJ
C:\USERS\MARCIN\DOCUMENTS\VISUAL STUDIO 2015\PROJECTS\SNAKETHEGAME\SNAKETHEGAME\DEBUG\MAIN.OBJ
C:\USERS\MARCIN\DOCUMENTS\VISUAL STUDIO 2015\PROJECTS\SNAKETHEGAME\SNAKETHEGAME\DEBUG\SNAKE.OBJ
C:\USERS\MARCIN\DOCUMENTS\VISUAL STUDIO 2015\PROJECTS\SNAKETHEGAME\SNAKETHEGAME\DEBUG\SQUARE.OBJ
^C:\USERS\MARCIN\DOCUMENTS\VISUAL STUDIO 2015\PROJECTS\SNAKETHEGAME\SNAKETHEGAME\CIRCLE.CPP
C:\USERS\MARCIN\DOCUMENTS\VISUAL STUDIO 2015\PROJECTS\SNAKETHEGAME\SNAKETHEGAME\DEBUG\VC140.PDB
^C:\USERS\MARCIN\DOCUMENTS\VISUAL STUDIO 2015\PROJECTS\SNAKETHEGAME\SNAKETHEGAME\GAMEWINDOW.CPP
C:\USERS\MARCIN\DOCUMENTS\VISUAL STUDIO 2015\PROJECTS\SNAKETHEGAME\SNAKETHEGAME\DEBUG\VC140.PDB
C:\USERS\MARCIN\DOCUMENTS\VISUAL STUDIO 2015\PROJECTS\SNAKETHEGAME\SNAKETHEGAME\DEBUG\VC140.IDB
C:\USERS\MARCIN\DOCUMENTS\VISUAL STUDIO 2015\PROJECTS\SNAKETHEGAME\SNAKETHEGAME\DEBUG\GAMEWINDOW.OBJ
^C:\USERS\MARCIN\DOCUMENTS\VISUAL STUDIO 2015\PROJECTS\SNAKETHEGAME\SNAKETHEGAME\INPUT.CPP
C:\USERS\MARCIN\DOCUMENTS\VISUAL STUDIO 2015\PROJECTS\SNAKETHEGAME\SNAKETHEGAME\DEBUG\VC140.PDB
^C:\USERS\MARCIN\DOCUMENTS\VISUAL STUDIO 2015\PROJECTS\SNAKETHEGAME\SNAKETHEGAME\MAIN.CPP
C:\USERS\MARCIN\DOCUMENTS\VISUAL STUDIO 2015\PROJECTS\SNAKETHEGAME\SNAKETHEGAME\DEBUG\VC140.PDB
C:\USERS\MARCIN\DOCUMENTS\VISUAL STUDIO 2015\PROJECTS\SNAKETHEGAME\SNAKETHEGAME\DEBUG\VC140.IDB
C:\USERS\MARCIN\DOCUMENTS\VISUAL STUDIO 2015\PROJECTS\SNAKETHEGAME\SNAKETHEGAME\DEBUG\MAIN.OBJ
^C:\USERS\MARCIN\DOCUMENTS\VISUAL STUDIO 2015\PROJECTS\SNAKETHEGAME\SNAKETHEGAME\SNAKE.CPP
C:\USERS\MARCIN\DOCUMENTS\VISUAL STUDIO 2015\PROJECTS\SNAKETHEGAME\SNAKETHEGAME\DEBUG\VC140.PDB
^C:\USERS\MARCIN\DOCUMENTS\VISUAL STUDIO 2015\PROJECTS\SNAKETHEGAME\SNAKETHEGAME\SQUARE.CPP
C:\USERS\MARCIN\DOCUMENTS\VISUAL STUDIO 2015\PROJECTS\SNAKETHEGAME\SNAKETHEGAME\DEBUG\VC140.PDB
^C:\USERS\MARCIN\DOCUMENTS\VISUAL STUDIO 2015\PROJECTS\SNAKETHEGAME\SNAKETHEGAME\CIRCLE.CPP|C:\USERS\MARCIN\DOCUMENTS\VISUAL STUDIO 2015\PROJECTS\SNAKETHEGAME\SNAKETHEGAME\GAMEWINDOW.CPP|C:\USERS\MARCIN\DOCUMENTS\VISUAL STUDIO 2015\PROJECTS\SNAKETHEGAME\SNAKETHEGAME\MAIN.CPP|C:\USERS\MARCIN\DOCUMENTS\VISUAL STUDIO 2015\PROJECTS\SNAKETHEGAME\SNAKETHEGAME\SNAKE.CPP
C:\USERS\MARCIN\DOCUMENTS\VISUAL STUDIO 2015\PROJECTS\SNAKETHEGAME\SNAKETHEGAME\DEBUG\VC140.PDB
C:\USERS\MARCIN\DOCUMENTS\VISUAL STUDIO 2015\PROJECTS\SNAKETHEGAME\SNAKETHEGAME\DEBUG\VC140.IDB
C:\USERS\MARCIN\DOCUMENTS\VISUAL STUDIO 2015\PROJECTS\SNAKETHEGAME\SNAKETHEGAME\DEBUG\GAMEWINDOW.OBJ
