^C:\USERS\MARCIN\DOCUMENTS\VISUAL STUDIO 2015\PROJECTS\SNAKETHEGAME\SNAKETHEGAME\DEBUG\CIRCLE.OBJ|C:\USERS\MARCIN\DOCUMENTS\VISUAL STUDIO 2015\PROJECTS\SNAKETHEGAME\SNAKETHEGAME\DEBUG\GAMEWINDOW.OBJ|C:\USERS\MARCIN\DOCUMENTS\VISUAL STUDIO 2015\PROJECTS\SNAKETHEGAME\SNAKETHEGAME\DEBUG\INPUT.OBJ|C:\USERS\MARCIN\DOCUMENTS\VISUAL STUDIO 2015\PROJECTS\SNAKETHEGAME\SNAKETHEGAME\DEBUG\MAIN.OBJ|C:\USERS\MARCIN\DOCUMENTS\VISUAL STUDIO 2015\PROJECTS\SNAKETHEGAME\SNAKETHEGAME\DEBUG\SNAKE.OBJ|C:\USERS\MARCIN\DOCUMENTS\VISUAL STUDIO 2015\PROJECTS\SNAKETHEGAME\SNAKETHEGAME\DEBUG\SQUARE.OBJ
C:\WINDOWS\GLOBALIZATION\SORTING\SORTDEFAULT.NLS
C:\USERS\MARCIN\DOCUMENTS\VISUAL STUDIO 2015\PROJECTS\SNAKETHEGAME\SNAKETHEGAME\LIB\SFML-GRAPHICS-D.LIB
C:\USERS\MARCIN\DOCUMENTS\VISUAL STUDIO 2015\PROJECTS\SNAKETHEGAME\SNAKETHEGAME\LIB\SFML-WINDOW-D.LIB
C:\USERS\MARCIN\DOCUMENTS\VISUAL STUDIO 2015\PROJECTS\SNAKETHEGAME\SNAKETHEGAME\LIB\SFML-SYSTEM-D.LIB
C:\PROGRAM FILES (X86)\WINDOWS KITS\8.1\LIB\WINV6.3\UM\X86\OPENGL32.LIB
C:\USERS\MARCIN\DOCUMENTS\VISUAL STUDIO 2015\PROJECTS\SNAKETHEGAME\SNAKETHEGAME\LIB\FREETYPE.LIB
C:\PROGRAM FILES (X86)\WINDOWS KITS\8.1\LIB\WINV6.3\UM\X86\WINMM.LIB
C:\PROGRAM FILES (X86)\WINDOWS KITS\8.1\LIB\WINV6.3\UM\X86\GDI32.LIB
C:\PROGRAM FILES (X86)\WINDOWS KITS\8.1\LIB\WINV6.3\UM\X86\KERNEL32.LIB
C:\PROGRAM FILES (X86)\WINDOWS KITS\8.1\LIB\WINV6.3\UM\X86\USER32.LIB
C:\PROGRAM FILES (X86)\WINDOWS KITS\8.1\LIB\WINV6.3\UM\X86\WINSPOOL.LIB
C:\PROGRAM FILES (X86)\WINDOWS KITS\8.1\LIB\WINV6.3\UM\X86\COMDLG32.LIB
C:\PROGRAM FILES (X86)\WINDOWS KITS\8.1\LIB\WINV6.3\UM\X86\ADVAPI32.LIB
C:\PROGRAM FILES (X86)\WINDOWS KITS\8.1\LIB\WINV6.3\UM\X86\SHELL32.LIB
C:\PROGRAM FILES (X86)\WINDOWS KITS\8.1\LIB\WINV6.3\UM\X86\OLE32.LIB
C:\PROGRAM FILES (X86)\WINDOWS KITS\8.1\LIB\WINV6.3\UM\X86\OLEAUT32.LIB
C:\PROGRAM FILES (X86)\WINDOWS KITS\8.1\LIB\WINV6.3\UM\X86\UUID.LIB
C:\PROGRAM FILES (X86)\WINDOWS KITS\8.1\LIB\WINV6.3\UM\X86\ODBC32.LIB
C:\PROGRAM FILES (X86)\WINDOWS KITS\8.1\LIB\WINV6.3\UM\X86\ODBCCP32.LIB
C:\USERS\MARCIN\DOCUMENTS\VISUAL STUDIO 2015\PROJECTS\SNAKETHEGAME\SNAKETHEGAME\DEBUG\CIRCLE.OBJ
C:\USERS\MARCIN\DOCUMENTS\VISUAL STUDIO 2015\PROJECTS\SNAKETHEGAME\SNAKETHEGAME\DEBUG\GAMEWINDOW.OBJ
C:\USERS\MARCIN\DOCUMENTS\VISUAL STUDIO 2015\PROJECTS\SNAKETHEGAME\SNAKETHEGAME\DEBUG\INPUT.OBJ
C:\USERS\MARCIN\DOCUMENTS\VISUAL STUDIO 2015\PROJECTS\SNAKETHEGAME\SNAKETHEGAME\DEBUG\MAIN.OBJ
C:\USERS\MARCIN\DOCUMENTS\VISUAL STUDIO 2015\PROJECTS\SNAKETHEGAME\SNAKETHEGAME\DEBUG\SNAKE.OBJ
C:\USERS\MARCIN\DOCUMENTS\VISUAL STUDIO 2015\PROJECTS\SNAKETHEGAME\SNAKETHEGAME\DEBUG\SQUARE.OBJ
C:\WINDOWS\SYSTEM32\TZRES.DLL
C:\PROGRAM FILES (X86)\MICROSOFT VISUAL STUDIO 14.0\VC\LIB\MSVCPRTD.LIB
C:\PROGRAM FILES (X86)\MICROSOFT VISUAL STUDIO 14.0\VC\LIB\MSVCRTD.LIB
C:\PROGRAM FILES (X86)\MICROSOFT VISUAL STUDIO 14.0\VC\LIB\OLDNAMES.LIB
C:\PROGRAM FILES (X86)\MICROSOFT VISUAL STUDIO 14.0\VC\LIB\VCRUNTIMED.LIB
C:\PROGRAM FILES (X86)\WINDOWS KITS\10\LIB\10.0.10240.0\UCRT\X86\UCRTD.LIB
C:\PROGRAM FILES (X86)\MICROSOFT VISUAL STUDIO 14.0\VC\BIN\LINK.EXE
C:\PROGRAM FILES (X86)\WINDOWS KITS\8.1\BIN\X86\RC.EXE
C:\PROGRAM FILES (X86)\MICROSOFT VISUAL STUDIO 14.0\VC\BIN\CVTRES.EXE
